^C:\USERS\OPDDR\SOURCE\REPOS\JIGSEON.COMMON\JIGSEON.COMMON\PCH.CPP
/c /I"C:\WORK.VCPKG\INSTALLED\X86-WINDOWS\INCLUDE" /ZI /JMC /nologo /W3 /WX- /diagnostics:column /sdl /Od /Oy- /D WIN32 /D _DEBUG /D _LIB /D _UNICODE /D UNICODE /Gm- /EHsc /RTC1 /MDd /GS /fp:precise /permissive- /Zc:wchar_t /Zc:forScope /Zc:inline /Yc"pch.h" /Fp"DEBUG\JIGSEON.COMMON.PCH" /Fo"DEBUG\\" /Fd"DEBUG\JIGSEON.COMMON.PDB" /Gd /TP /analyze- /FC C:\USERS\OPDDR\SOURCE\REPOS\JIGSEON.COMMON\JIGSEON.COMMON\PCH.CPP
^C:\USERS\OPDDR\SOURCE\REPOS\JIGSEON.COMMON\JIGSEON.COMMON\STDAFX.CPP
/c /I"C:\WORK.VCPKG\INSTALLED\X86-WINDOWS\INCLUDE" /ZI /JMC /nologo /W4 /WX- /diagnostics:column /sdl /Od /Oy- /D WIN32 /D _DEBUG /D _LIB /D _UNICODE /D UNICODE /Gm- /EHsc /RTC1 /MDd /GS /fp:precise /permissive- /Zc:wchar_t /Zc:forScope /Zc:inline /Yc"stdafx.h" /Fp"DEBUG\JIGSEON.COMMON.PCH" /Fo"DEBUG\\" /Fd"DEBUG\JIGSEON.COMMON.PDB" /Gd /TP /analyze- /FC /I ".." /I C:\Users\opddr\source\repos\jigseon.common\  C:\USERS\OPDDR\SOURCE\REPOS\JIGSEON.COMMON\JIGSEON.COMMON\STDAFX.CPP
^C:\USERS\OPDDR\SOURCE\REPOS\JIGSEON.COMMON\JIGSEON.COMMON\JIGSEON.COMMON.CPP
/c /I"C:\WORK.VCPKG\INSTALLED\X86-WINDOWS\INCLUDE" /ZI /JMC /nologo /W4 /WX- /diagnostics:column /sdl /Od /Oy- /D WIN32 /D _DEBUG /D _LIB /D _UNICODE /D UNICODE /Gm- /EHsc /RTC1 /MDd /GS /fp:precise /permissive- /Zc:wchar_t /Zc:forScope /Zc:inline /Yu"stdafx.h" /Fp"DEBUG\JIGSEON.COMMON.PCH" /Fo"DEBUG\\" /Fd"DEBUG\JIGSEON.COMMON.PDB" /Gd /TP /analyze- /FC /I ".." /I C:\Users\opddr\source\repos\jigseon.common\  C:\USERS\OPDDR\SOURCE\REPOS\JIGSEON.COMMON\JIGSEON.COMMON\JIGSEON.COMMON.CPP
^C:\USERS\OPDDR\JIGSEON.COMMON\JIGSEON.COMMON\STDAFX.CPP
/c /ZI /JMC /nologo /W4 /WX- /diagnostics:column /sdl /Od /Oy- /D WIN32 /D _DEBUG /D _LIB /D _UNICODE /D UNICODE /Gm- /EHsc /RTC1 /MDd /GS /fp:precise /permissive- /Zc:wchar_t /Zc:forScope /Zc:inline /Yc"stdafx.h" /Fp"DEBUG\JIGSEON.COMMON.PCH" /Fo"DEBUG\\" /Fd"DEBUG\JIGSEON.COMMON.PDB" /Gd /TP /analyze- /FC /I ".." /I C:\Users\opddr\jigseon.common\  C:\USERS\OPDDR\JIGSEON.COMMON\JIGSEON.COMMON\STDAFX.CPP
^C:\USERS\OPDDR\JIGSEON.COMMON\JIGSEON.COMMON\JIGSEON.COMMON.CPP
/c /ZI /JMC /nologo /W4 /WX- /diagnostics:column /sdl /Od /Oy- /D WIN32 /D _DEBUG /D _LIB /D _UNICODE /D UNICODE /Gm- /EHsc /RTC1 /MDd /GS /fp:precise /permissive- /Zc:wchar_t /Zc:forScope /Zc:inline /Yu"stdafx.h" /Fp"DEBUG\JIGSEON.COMMON.PCH" /Fo"DEBUG\\" /Fd"DEBUG\JIGSEON.COMMON.PDB" /Gd /TP /analyze- /FC /I ".." /I C:\Users\opddr\jigseon.common\  C:\USERS\OPDDR\JIGSEON.COMMON\JIGSEON.COMMON\JIGSEON.COMMON.CPP
