^C:\USERS\OPDDR\JIGSEON.COMMON\JIGSEON.COMMON\X64\DEBUG\JIGSEON.COMMON.OBJ|C:\USERS\OPDDR\JIGSEON.COMMON\JIGSEON.COMMON\X64\DEBUG\STDAFX.OBJ
C:\USERS\OPDDR\JIGSEON.COMMON\JIGSEON.COMMON\X64\DEBUG\JIGSEON.COMMON.OBJ
C:\WINDOWS\SYSTEM32\TZRES.DLL
C:\USERS\OPDDR\JIGSEON.COMMON\JIGSEON.COMMON\X64\DEBUG\STDAFX.OBJ
C:\WINDOWS\GLOBALIZATION\SORTING\SORTDEFAULT.NLS
